aes_test/01_RTL/wave.vcd
$date
	Fri May 29 15:46:08 2026
$end

$version
	Synopsys VCS version T-2022.06_Full64
$end

$timescale
	1ps
$end

$comment Csum: 1 c48c9b6ece6d846a $end


$scope module TESTBED $end

$scope module u_PATTERN $end
$var reg 1 ! clk $end
$var reg 1 " rst $end
$var reg 1 # ld $end
$var reg 1 $ done_dut $end
$var reg 128 % key [127:0] $end
$var reg 128 & text_in [127:0] $end
$var reg 128 ' text_out_dut [127:0] $end
$var reg 1 ( done_ref $end
$var reg 128 ) text_out_ref [127:0] $end
$var reg 512 * wavedrom_title [511:0] $end
$var reg 1 + wavedrom_enable $end
$var wire 1 , tb_match_text $end
$var wire 1 - tb_match_done $end
$var wire 1 . tb_match $end
$var reg 224 / stats1 [223:0] $end

$scope module stim1 $end
$var wire 1 0 clk $end
$var wire 1 . tb_match $end
$var reg 1 1 rst $end
$var reg 1 2 ld $end
$var reg 128 3 key [127:0] $end
$var reg 128 4 text_in [127:0] $end
$var reg 512 5 wavedrom_title [511:0] $end
$var reg 1 6 wavedrom_enable $end

$scope task wavedrom_start $end
$var reg 512 7 title [511:0] $end
$upscope $end


$scope task wavedrom_stop $end
$upscope $end


$scope task reset_test $end
$var reg 1 8 async $end
$var reg 1 9 arfail $end
$var reg 1 : srfail $end
$var reg 1 ; datafail $end
$upscope $end


$scope begin unnamed$$_0 $end
$upscope $end

$upscope $end


$scope module good1 $end
$var wire 1 < clk $end
$var wire 1 = rst $end
$var wire 1 > ld $end
$var reg 1 ? done $end
$var wire 128 @ key [127:0] $end
$var wire 128 A text_in [127:0] $end
$var reg 128 B text_out [127:0] $end
$var wire 32 C w0 [31:0] $end
$var wire 32 D w1 [31:0] $end
$var wire 32 E w2 [31:0] $end
$var wire 32 F w3 [31:0] $end
$var reg 128 G text_in_r [127:0] $end
$var reg 8 H sa00 [7:0] $end
$var reg 8 I sa01 [7:0] $end
$var reg 8 J sa02 [7:0] $end
$var reg 8 K sa03 [7:0] $end
$var reg 8 L sa10 [7:0] $end
$var reg 8 M sa11 [7:0] $end
$var reg 8 N sa12 [7:0] $end
$var reg 8 O sa13 [7:0] $end
$var reg 8 P sa20 [7:0] $end
$var reg 8 Q sa21 [7:0] $end
$var reg 8 R sa22 [7:0] $end
$var reg 8 S sa23 [7:0] $end
$var reg 8 T sa30 [7:0] $end
$var reg 8 U sa31 [7:0] $end
$var reg 8 V sa32 [7:0] $end
$var reg 8 W sa33 [7:0] $end
$var wire 8 X sa00_next [7:0] $end
$var wire 8 Y sa01_next [7:0] $end
$var wire 8 Z sa02_next [7:0] $end
$var wire 8 [ sa03_next [7:0] $end
$var wire 8 \ sa10_next [7:0] $end
$var wire 8 ] sa11_next [7:0] $end
$var wire 8 ^ sa12_next [7:0] $end
$var wire 8 _ sa13_next [7:0] $end
$var wire 8 ` sa20_next [7:0] $end
$var wire 8 a sa21_next [7:0] $end
$var wire 8 b sa22_next [7:0] $end
$var wire 8 c sa23_next [7:0] $end
$var wire 8 d sa30_next [7:0] $end
$var wire 8 e sa31_next [7:0] $end
$var wire 8 f sa32_next [7:0] $end
$var wire 8 g sa33_next [7:0] $end
$var wire 8 h sa00_sub [7:0] $end
$var wire 8 i sa01_sub [7:0] $end
$var wire 8 j sa02_sub [7:0] $end
$var wire 8 k sa03_sub [7:0] $end
$var wire 8 l sa10_sub [7:0] $end
$var wire 8 m sa11_sub [7:0] $end
$var wire 8 n sa12_sub [7:0] $end
$var wire 8 o sa13_sub [7:0] $end
$var wire 8 p sa20_sub [7:0] $end
$var wire 8 q sa21_sub [7:0] $end
$var wire 8 r sa22_sub [7:0] $end
$var wire 8 s sa23_sub [7:0] $end
$var wire 8 t sa30_sub [7:0] $end
$var wire 8 u sa31_sub [7:0] $end
$var wire 8 v sa32_sub [7:0] $end
$var wire 8 w sa33_sub [7:0] $end
$var wire 8 x sa00_sr [7:0] $end
$var wire 8 y sa01_sr [7:0] $end
$var wire 8 z sa02_sr [7:0] $end
$var wire 8 { sa03_sr [7:0] $end
$var wire 8 | sa10_sr [7:0] $end
$var wire 8 } sa11_sr [7:0] $end
$var wire 8 ~ sa12_sr [7:0] $end
$var wire 8 "! sa13_sr [7:0] $end
$var wire 8 "" sa20_sr [7:0] $end
$var wire 8 "# sa21_sr [7:0] $end
$var wire 8 "$ sa22_sr [7:0] $end
$var wire 8 "% sa23_sr [7:0] $end
$var wire 8 "& sa30_sr [7:0] $end
$var wire 8 "' sa31_sr [7:0] $end
$var wire 8 "( sa32_sr [7:0] $end
$var wire 8 ") sa33_sr [7:0] $end
$var wire 8 "* sa00_mc [7:0] $end
$var wire 8 "+ sa01_mc [7:0] $end
$var wire 8 ", sa02_mc [7:0] $end
$var wire 8 "- sa03_mc [7:0] $end
$var wire 8 ". sa10_mc [7:0] $end
$var wire 8 "/ sa11_mc [7:0] $end
$var wire 8 "0 sa12_mc [7:0] $end
$var wire 8 "1 sa13_mc [7:0] $end
$var wire 8 "2 sa20_mc [7:0] $end
$var wire 8 "3 sa21_mc [7:0] $end
$var wire 8 "4 sa22_mc [7:0] $end
$var wire 8 "5 sa23_mc [7:0] $end
$var wire 8 "6 sa30_mc [7:0] $end
$var wire 8 "7 sa31_mc [7:0] $end
$var wire 8 "8 sa32_mc [7:0] $end
$var wire 8 "9 sa33_mc [7:0] $end
$var reg 1 ": ld_r $end
$var reg 4 "; dcnt [3:0] $end
$var wire 32 "< mix_col_out0 [31:0] $end
$var wire 32 "= mix_col_out1 [31:0] $end
$var wire 32 "> mix_col_out2 [31:0] $end
$var wire 32 "? mix_col_out3 [31:0] $end

$scope function mix_col $end
$var reg 32 "@ mix_col [31:0] $end
$var reg 8 "A s0 [7:0] $end
$var reg 8 "B s1 [7:0] $end
$var reg 8 "C s2 [7:0] $end
$var reg 8 "D s3 [7:0] $end
$var reg 8 "E s0_o [7:0] $end
$var reg 8 "F s1_o [7:0] $end
$var reg 8 "G s2_o [7:0] $end
$var reg 8 "H s3_o [7:0] $end
$upscope $end


$scope function xtime $end
$var reg 8 "I xtime [7:0] $end
$var reg 8 "J b [7:0] $end
$upscope $end


$scope module u0 $end
$var wire 1 < clk $end
$var wire 1 > kld $end
$var wire 128 @ key [127:0] $end
$var wire 32 C wo_0 [31:0] $end
$var wire 32 D wo_1 [31:0] $end
$var wire 32 E wo_2 [31:0] $end
$var wire 32 F wo_3 [31:0] $end
$var wire 32 "K tmp_w [31:0] $end
$var wire 32 "L subword [31:0] $end
$var wire 32 "M rcon [31:0] $end

$scope module u0 $end
$var wire 8 "N a [7:0] $end
$var reg 8 "O b [7:0] $end
$upscope $end


$scope module u1 $end
$var wire 8 "P a [7:0] $end
$var reg 8 "Q b [7:0] $end
$upscope $end


$scope module u2 $end
$var wire 8 "R a [7:0] $end
$var reg 8 "S b [7:0] $end
$upscope $end


$scope module u3 $end
$var wire 8 "T a [7:0] $end
$var reg 8 "U b [7:0] $end
$upscope $end


$scope module r0 $end
$var wire 1 < clk $end
$var wire 1 > kld $end
$var reg 32 "V out [31:0] $end
$var reg 4 "W rcnt [3:0] $end
$var wire 4 "X rcnt_next [3:0] $end

$scope function frcon $end
$var reg 32 "Y frcon [31:0] $end
$var reg 4 "Z i [3:0] $end
$upscope $end

$upscope $end

$upscope $end


$scope module us00 $end
$var wire 8 "[ a [7:0] $end
$var reg 8 "\ b [7:0] $end
$upscope $end


$scope module us01 $end
$var wire 8 "] a [7:0] $end
$var reg 8 "^ b [7:0] $end
$upscope $end


$scope module us02 $end
$var wire 8 "_ a [7:0] $end
$var reg 8 "` b [7:0] $end
$upscope $end


$scope module us03 $end
$var wire 8 "a a [7:0] $end
$var reg 8 "b b [7:0] $end
$upscope $end


$scope module us10 $end
$var wire 8 "c a [7:0] $end
$var reg 8 "d b [7:0] $end
$upscope $end


$scope module us11 $end
$var wire 8 "e a [7:0] $end
$var reg 8 "f b [7:0] $end
$upscope $end


$scope module us12 $end
$var wire 8 "g a [7:0] $end
$var reg 8 "h b [7:0] $end
$upscope $end


$scope module us13 $end
$var wire 8 "i a [7:0] $end
$var reg 8 "j b [7:0] $end
$upscope $end


$scope module us20 $end
$var wire 8 "k a [7:0] $end
$var reg 8 "l b [7:0] $end
$upscope $end


$scope module us21 $end
$var wire 8 "m a [7:0] $end
$var reg 8 "n b [7:0] $end
$upscope $end


$scope module us22 $end
$var wire 8 "o a [7:0] $end
$var reg 8 "p b [7:0] $end
$upscope $end


$scope module us23 $end
$var wire 8 "q a [7:0] $end
$var reg 8 "r b [7:0] $end
$upscope $end


$scope module us30 $end
$var wire 8 "s a [7:0] $end
$var reg 8 "t b [7:0] $end
$upscope $end


$scope module us31 $end
$var wire 8 "u a [7:0] $end
$var reg 8 "v b [7:0] $end
$upscope $end


$scope module us32 $end
$var wire 8 "w a [7:0] $end
$var reg 8 "x b [7:0] $end
$upscope $end


$scope module us33 $end
$var wire 8 "y a [7:0] $end
$var reg 8 "z b [7:0] $end
$upscope $end

$upscope $end

$upscope $end

$upscope $end

$enddefinitions $end

#0
$dumpvars
x$
x(
0>
0=
08
02
01
06
1.
1-
1,
0!
x?
0#
x":
0"
bxxxxxxxx h
bxxxxxxxx i
bxxxxxxxx j
bxxxxxxxx k
bxxxxxxxx l
bxxxxxxxx m
bxxxxxxxx n
bxxxxxxxx o
bxxxxxxxx p
bxxxxxxxx q
bxxxxxxxx r
bxxxxxxxx s
bxxxxxxxx t
bxxxxxxxx u
bxxxxxxxx v
bxxxxxxxx w
bxxxxxxxxxxxxxxxxxxxxxxxxxxxxxxxx "L
0+
09
0;
0:
b00000000000000000000000000000000000000000000000000000000000000000000000000000000000000000000000000000000000000000000000000000000 @
b00000000000000000000000000000000000000000000000000000000000000000000000000000000000000000000000000000000000000000000000000000000 A
b00000000000000000000000000000000000000000000000000000000000000000000000000000000000000000000000000000000000000000000000000000000 3
b00000000000000000000000000000000000000000000000000000000000000000000000000000000000000000000000000000000000000000000000000000000 4
b00000000000000000000000000000000000000000000000000000000000000000000000000000000000000000000000000000000000000000000000000000000000000000000000000000000000000000000000000000000000000000000000000000000000000000000000000000000000000000000000000000000000000000000000000000000000000000000000000000000000000000000000000000000000000000000000000000000000000000000000000000000000000000000000000000000000000000000000000000000000000000000000000000000000000000000000000000000000000000000000000000000000000000000000000000000 5
bxxxxxxxx X
bxxxxxxxx Z
bxxxxxxxx \
bxxxxxxxx ^
bxxxxxxxx `
bxxxxxxxx b
bxxxxxxxx d
bxxxxxxxx f
bxxxxxxxx "*
bxxxxxxxx ",
bxxxxxxxx ".
bxxxxxxxx "0
bxxxxxxxx "2
bxxxxxxxx "4
bxxxxxxxx "6
bxxxxxxxx "8
bxxxxxxxx Y
bxxxxxxxx [
bxxxxxxxx ]
bxxxxxxxx _
bxxxxxxxx a
bxxxxxxxx c
bxxxxxxxx e
bxxxxxxxx g
bxxxxxxxx "+
bxxxxxxxx "-
bxxxxxxxx "/
bxxxxxxxx "1
bxxxxxxxx "3
bxxxxxxxx "5
bxxxxxxxx "7
bxxxxxxxx "9
bxxxxxxxxxxxxxxxxxxxxxxxxxxxxxxxxxxxxxxxxxxxxxxxxxxxxxxxxxxxxxxxxxxxxxxxxxxxxxxxxxxxxxxxxxxxxxxxxxxxxxxxxxxxxxxxxxxxxxxxxxxxxxxxx '
bxxxxxxxxxxxxxxxxxxxxxxxxxxxxxxxxxxxxxxxxxxxxxxxxxxxxxxxxxxxxxxxxxxxxxxxxxxxxxxxxxxxxxxxxxxxxxxxxxxxxxxxxxxxxxxxxxxxxxxxxxxxxxxxx )
bxxxx ";
bxxxx "Z
bxxxxxxxxxxxxxxxxxxxxxxxxxxxxxxxx "Y
b00000000000000000000000000000000000000000000000000000000000000000000000000000000000000000000000000000000000000000000000000000000 %
bxxxxxxxx "A
bxxxxxxxx "E
bxxxxxxxx "B
bxxxxxxxx "F
bxxxxxxxx "C
bxxxxxxxx "G
bxxxxxxxx "D
bxxxxxxxx "H
bxxxxxxxxxxxxxxxxxxxxxxxxxxxxxxxx "@
bxxxxxxxxxxxxxxxxxxxxxxxxxxxxxxxx "<
bxxxxxxxxxxxxxxxxxxxxxxxxxxxxxxxx "=
bxxxxxxxxxxxxxxxxxxxxxxxxxxxxxxxx ">
bxxxxxxxxxxxxxxxxxxxxxxxxxxxxxxxx "?
bxxxxxxxxxxxxxxxxxxxxxxxxxxxxxxxx "V
bxxxx "W
bxxxx "X
bxxxxxxxxxxxxxxxxxxxxxxxxxxxxxxxx "M
bxxxxxxxx H
bxxxxxxxx x
bxxxxxxxx I
bxxxxxxxx y
bxxxxxxxx J
bxxxxxxxx z
bxxxxxxxx K
bxxxxxxxx {
bxxxxxxxx L
bxxxxxxxx |
bxxxxxxxx M
bxxxxxxxx }
bxxxxxxxx N
bxxxxxxxx ~
bxxxxxxxx O
bxxxxxxxx "!
bxxxxxxxx P
bxxxxxxxx ""
bxxxxxxxx Q
bxxxxxxxx "#
bxxxxxxxx R
bxxxxxxxx "$
bxxxxxxxx S
bxxxxxxxx "%
bxxxxxxxx T
bxxxxxxxx "&
bxxxxxxxx U
bxxxxxxxx "'
bxxxxxxxx V
bxxxxxxxx "(
bxxxxxxxx W
bxxxxxxxx ")
b00000000000000000000000000000000000000000000000000000000000000000000000000000000000000000000000000000000000000000000000000000000 &
bxxxxxxxxxxxxxxxxxxxxxxxxxxxxxxxxxxxxxxxxxxxxxxxxxxxxxxxxxxxxxxxxxxxxxxxxxxxxxxxxxxxxxxxxxxxxxxxxxxxxxxxxxxxxxxxxxxxxxxxxxxxxxxxx G
bxxxxxxxxxxxxxxxxxxxxxxxxxxxxxxxxxxxxxxxxxxxxxxxxxxxxxxxxxxxxxxxxxxxxxxxxxxxxxxxxxxxxxxxxxxxxxxxxxxxxxxxxxxxxxxxxxxxxxxxxxxxxxxxx B
bxxxxxxxxxxxxxxxxxxxxxxxxxxxxxxxx C
bxxxxxxxxxxxxxxxxxxxxxxxxxxxxxxxx D
bxxxxxxxxxxxxxxxxxxxxxxxxxxxxxxxx E
bxxxxxxxxxxxxxxxxxxxxxxxxxxxxxxxx F
bxxxxxxxx "J
bxxxxxxxx "I
bxxxxxxxxxxxxxxxxxxxxxxxxxxxxxxxxxxxxxxxxxxxxxxxxxxxxxxxxxxxxxxxxxxxxxxxxxxxxxxxxxxxxxxxxxxxxxxxxxxxxxxxxxxxxxxxxxxxxxxxxxxxxxxxxxxxxxxxxxxxxxxxxxxxxxxxxxxxxxxxxxxxxxxxxxxxxxxxxxxxxxxxxxxxxxxxxxxxxxxxxxxxxxxxxxxxxxxxxxxxxxxxxxxxxxxxxxxxxxxxxxxxxxxxxxxxxxxxxxxxxxxxxxxxxxxxxxxxxxxxxxxxxxxxxxxxxxxxxxxxxxxxxxxxxxxxxxxxxxxxxxxxxxxxxxxxxxxxxxxxxxxxxxxxxxxxxxxxxxxxxxxxxxxxxxxxxxxxxxxxxxxxxxxxxxxxxxxxxxxxxxxxxxxxxxxxxxxxxxxxxxxxxxxxxxxxxxxxxxxxxxxxxxxxxxxxxxxxxxxxxxxxxxxxxxxxxxxxxxxxxxxxxxxxxxxxxxxxxxxxxxxxxxxxxxxxx 7
b00000000000000000000000000000000000000000000000000000000000000000000000000000000000000000000000000000000000000000000000000000000000000000000000000000000000000000000000000000000000000000000000000000000000000000000000000000000000000000000000000000000000000000000000000000000000000000000000000000000000000000000000000000000000000000000000000000000000000000000000000000000000000000000000000000000000000000000000000000000000000000000000000000000000000000000000000000000000000000000000000000000000000000000000000000000 *
b00000000000000000000000000000000000000000000000000000000000000000000000000000000000000000000000000000000000000000000000000000000000000000000000000000000000000000000000000000000000000000000000000000000000000000000000000000000 /
bxxxxxxxx "O
bxxxxxxxx "Q
bxxxxxxxx "S
bxxxxxxxx "U
bxxxxxxxx "\
bxxxxxxxx "^
bxxxxxxxx "`
bxxxxxxxx "b
bxxxxxxxx "d
bxxxxxxxx "f
bxxxxxxxx "h
bxxxxxxxx "j
bxxxxxxxx "l
bxxxxxxxx "n
bxxxxxxxx "p
bxxxxxxxx "r
bxxxxxxxx "t
bxxxxxxxx "v
bxxxxxxxx "x
bxxxxxxxx "z
bxxxxxxxx "N
bxxxxxxxx "P
bxxxxxxxx "R
bxxxxxxxx "T
0<
00
bxxxxxxxxxxxxxxxxxxxxxxxxxxxxxxxx "K
bxxxxxxxx "[
bxxxxxxxx "]
bxxxxxxxx "_
bxxxxxxxx "a
bxxxxxxxx "c
bxxxxxxxx "e
bxxxxxxxx "g
bxxxxxxxx "i
bxxxxxxxx "k
bxxxxxxxx "m
bxxxxxxxx "o
bxxxxxxxx "q
bxxxxxxxx "s
bxxxxxxxx "u
bxxxxxxxx "w
bxxxxxxxx "y
$end
#5000
1!
1<
10
b00000000000000000000000000000000000000000000000000000000000000000000000000000000000000000000000000000000000000000000000000000000000000000000000000000000000000000000000000000000000000000000000000000000000000000000000000000001 /
b00000000000000000000000000000000 "Y
b0000 ";
0":
b00000000000000000000000000000000 "V
b00000000000000000000000000000000 "M
bxxxxxxxxxxxxxxxxxxxxxxxxxxxxxxxx "K
#10000
0!
0<
00
#15000
1!
1<
10
b00000000000000000000000000000000000000000000000000000000000000000000000000000000000000000000000000000000000000000000000000000000000000000000000000000000000000000000000000000000000000000000000000000000000000000000000000000010 /
0$
0-
0?
0(
1-
bxxxxxxxxxxxxxxxxxxxxxxxxxxxxxxxx "K
1.
#20000
0!
0<
00
#25000
1!
1<
10
b00000000000000000000000000000000000000000000000000000000000000000000000000000000000000000000000000000000000000000000000000000000000000000000000000000000000000000000000000000000000000000000000000000000000000000000000000000011 /
#30000
0!
0<
00
#35000
1!
1<
10
b00000000000000000000000000000000000000000000000000000000000000000000000000000000000000000000000000000000000000000000000000000000000000000000000000000000000000000000000000000000000000000000000000000000000000000000000000000100 /
#40000
0!
0<
00
#45000
1!
1<
10
b00000000000000000000000000000000000000000000000000000000000000000000000000000000000000000000000000000000000000000000000000000000000000000000000000000000000000000000000000000000000000000000000000000000000000000000000000000101 /
#50000
0!
0<
00
11
1"
1=
#55000
1!
1<
10
b00000000000000000000000000000000000000000000000000000000000000000000000000000000000000000000000000000000000000000000000000000000000000000000000000000000000000000000000000000000000000000000000000000000000000000000000000000110 /
#60000
0!
0<
00
#65000
1!
1<
10
b00000000000000000000000000000000000000000000000000000000000000000000000000000000000000000000000000000000000000000000000000000000000000000000000000000000000000000000000000000000000000000000000000000000000000000000000000000111 /
01
0"
0=
#70000
0!
0<
00
#75000
1!
1<
10
b00000000000000000000000000000000000000000000000000000000000000000000000000000000000000000000000000000000000000000000000000000000000000000000000000000000000000000000000000000000000000000000000000000000000000000000000000001000 /
#80000
0!
0<
00
#85000
1!
1<
10
b00000000000000000000000000000000000000000000000000000000000000000000000000000000000000000000000000000000000000000000000000000000000000000000000000000000000000000000000000000000000000000000000000000000000000000000000000001001 /
#90000
0!
0<
00
#95000
1!
1<
10
b00000000000000000000000000000000000000000000000000000000000000000000000000000000000000000000000000000000000000000000000000000000000000000000000000000000000000000000000000000000000000000000000000000000000000000000000000001010 /
#100000
0!
0<
00
#105000
1!
1<
10
b00000000000000000000000000000000000000000000000000000000000000000000000000000000000000000000000000000000000000000000000000000000000000000000000000000000000000000000000000000000000000000000000000000000000000000000000000001011 /
#110000
0!
0<
00
#115000
1!
1<
10
b00000000000000000000000000000000000000000000000000000000000000000000000000000000000000000000000000000000000000000000000000000000000000000000000000000000000000000000000000000000000000000000000000000000000000000000000000001100 /
#120000
0!
0<
00
#125000
1!
1<
10
b00000000000000000000000000000000000000000000000000000000000000000000000000000000000000000000000000000000000000000000000000000000000000000000000000000000000000000000000000000000000000000000000000000000000000000000000000001101 /
#130000
0!
0<
00
#135000
1!
1<
10
b00000000000000000000000000000000000000000000000000000000000000000000000000000000000000000000000000000000000000000000000000000000000000000000000000000000000000000000000000000000000000000000000000000000000000000000000000001110 /
#140000
0!
0<
00
11
1"
1=
#145000
1!
1<
10
b00000000000000000000000000000000000000000000000000000000000000000000000000000000000000000000000000000000000000000000000000000000000000000000000000000000000000000000000000000000000000000000000000000000000000000000000000001111 /
#150000
0!
0<
00
#155000
1!
1<
10
b00000000000000000000000000000000000000000000000000000000000000000000000000000000000000000000000000000000000000000000000000000000000000000000000000000000000000000000000000000000000000000000000000000000000000000000000000010000 /
01
0"
0=
#160000
0!
0<
00
#165000
1!
1<
10
b00000000000000000000000000000000000000000000000000000000000000000000000000000000000000000000000000000000000000000000000000000000000000000000000000000000000000000000000000000000000000000000000000000000000000000000000000010001 /
#170000
0!
0<
00
#175000
1!
1<
10
b00000000000000000000000000000000000000000000000000000000000000000000000000000000000000000000000000000000000000000000000000000000000000000000000000000000000000000000000000000000000000000000000000000000000000000000000000010010 /
b00000000000000000000000000000000000000000000000000000000000000000000000000000000000000000000000000000000000000000000000000000000000000000000000000000000000000000000000000000000000000000000000000000000000000000000000000000000000000000000000000000000000000000000000001000011011011110110110101110000011011000110010101110100011001010010000001000001010001010101001100100000010001010110111001100011011100100111100101110000011101000110100101101111011011100010000001010000011100100110111101100011011001010111001101110011 7
b00000000000000000000000000000000000000000000000000000000000000000000000000000000000000000000000000000000000000000000000000000000000000000000000000000000000000000000000000000000000000000000000000000000000000000000000000000000000000000000000000000000000000000000000001000011011011110110110101110000011011000110010101110100011001010010000001000001010001010101001100100000010001010110111001100011011100100111100101110000011101000110100101101111011011100010000001010000011100100110111101100011011001010111001101110011 5
b00000000000000000000000000000000000000000000000000000000000000000000000000000000000000000000000000000000000000000000000000000000000000000000000000000000000000000000000000000000000000000000000000000000000000000000000000000000000000000000000000000000000000000000000001000011011011110110110101110000011011000110010101110100011001010010000001000001010001010101001100100000010001010110111001100011011100100111100101110000011101000110100101101111011011100010000001010000011100100110111101100011011001010111001101110011 *
16
1+
#180000
0!
0<
00
b00000000000000010000001000000011000001000000010100000110000001110000100000001001000010100000101100001100000011010000111000001111 3
b00000000000000010000001000000011000001000000010100000110000001110000100000001001000010100000101100001100000011010000111000001111 %
b00000000000000010000001000000011000001000000010100000110000001110000100000001001000010100000101100001100000011010000111000001111 @
b11111111111111111111111111111111111111111111111111111111111111111111111111111111111111111111111111111111111111111111111111111111 4
b11111111111111111111111111111111111111111111111111111111111111111111111111111111111111111111111111111111111111111111111111111111 &
b11111111111111111111111111111111111111111111111111111111111111111111111111111111111111111111111111111111111111111111111111111111 A
11
1"
1=
12
1#
1>
#185000
1!
1<
10
b00000000000000000000000000000000000000000000000000000000000000000000000000000000000000000000000000000000000000000000000000000000000000000000000000000000000000000000000000000000000000000000000000000000000000000000000000010011 /
02
0#
0>
b1011 ";
b11111111111111111111111111111111111111111111111111111111111111111111111111111111111111111111111111111111111111111111111111111111 G
1":
b00000001000000000000000000000000 "V
b00000001000000000000000000000000 "M
b0000 "W
b0001 "X
b00001100000011010000111000001111 "K
b00001111 "R
b00001110 "P
b00001101 "N
b00001100 "T
b00001100000011010000111000001111 F
b00001000000010010000101000001011 E
b00000100000001010000011000000111 D
b00000000000000010000001000000011 C
b01110110 "S
b10101011 "Q
b11010111 "O
b11111110 "U
b11010111101010110111011011111110 "L
#190000
0!
0<
00
#195000
1!
1<
10
b00000000000000000000000000000000000000000000000000000000000000000000000000000000000000000000000000000000000000000000000000000000000000000000000000000000000000000000000000000000000000000000000000000000000000000000000000010100 /
b0001 "Z
b00000010000000000000000000000000 "Y
b1010 ";
0":
b11110000 W
b11110000 "y
b11110001 S
b11110001 "q
b11110010 O
b11110010 "i
b11110011 K
b11110011 "a
b11110100 V
b11110100 "w
b11110101 R
b11110101 "o
b11110110 N
b11110110 "g
b11110111 J
b11110111 "_
b11111000 U
b11111000 "u
b11111001 Q
b11111001 "m
b11111010 M
b11111010 "e
b11111011 I
b11111011 "]
b11111100 T
b11111100 "s
b11111101 P
b11111101 "k
b11111110 L
b11111110 "c
b11111111 H
b11111111 "[
b00000010000000000000000000000000 "V
b00000010000000000000000000000000 "M
b0001 "W
b0010 "X
b11010110101010110111011011111110 "K
b11111110 "R
b01110110 "P
b10101011 "N
b11010110 "T
b11010110101010110111011011111110 F
b11011010101001100111100011110001 E
b11010010101011110111001011111010 D
b11010110101010100111010011111101 C
b10001100 "z
b10001100 w
b10001100 "&
b10001100 "J
b00000011 "I
bxxxxxxxx "J
bxxxxxxxx "I
b10001100 "J
b00000011 "I
b10001100 "D
b10100001 "r
b10100001 s
b10100001 "#
bxxxxxxxx "J
bxxxxxxxx "I
b10100001 "J
b01011001 "I
bxxxxxxxx "J
bxxxxxxxx "I
b10100001 "C
bxxxxxxxx "D
b10001001 "j
b10001001 o
b10001001 ~
b10001001 "J
b00001001 "I
bxxxxxxxx "J
bxxxxxxxx "I
b10001001 "B
bxxxxxxxx "C
b00001101 "b
b00001101 k
b00001101 {
b00001101 "J
b00011010 "I
bxxxxxxxx "J
bxxxxxxxx "I
b00001101 "J
b00011010 "I
bxxxxxxxx "J
bxxxxxxxx "I
b00001101 "A
bxxxxxxxx "B
b10111111 "x
b10111111 v
b10111111 ")
b00001101 "J
b00011010 "I
bxxxxxxxx "J
bxxxxxxxx "I
b10111111 "J
b01100101 "I
b00001101 "J
b00011010 "I
b10111111 "J
b01100101 "I
b10111111 "D
b11100110 "p
b11100110 r
b11100110 ""
bxxxxxxxx "J
bxxxxxxxx "I
b11100110 "J
b11010111 "I
b10001100 "J
b00000011 "I
bxxxxxxxx "J
bxxxxxxxx "I
b10001100 "J
b00000011 "I
bxxxxxxxx "A
b11100110 "C
b10001100 "D
b01000010 "h
b01000010 n
b01000010 }
bxxxxxxxx "J
bxxxxxxxx "I
b01000010 "J
b10000100 "I
b10100001 "J
b01011001 "I
bxxxxxxxx "J
bxxxxxxxx "I
b01000010 "B
b10100001 "C
bxxxxxxxx "D
b01101000 "`
b01101000 j
b01101000 z
b01101000 "J
b11010000 "I
b10001001 "J
b00001001 "I
bxxxxxxxx "J
bxxxxxxxx "I
b01101000 "J
b11010000 "I
bxxxxxxxx "J
bxxxxxxxx "I
b01101000 "A
b10001001 "B
bxxxxxxxx "C
b01000001 "v
b01000001 u
b01000001 "(
b01101000 "J
b11010000 "I
b10001001 "J
b00001001 "I
bxxxxxxxx "J
bxxxxxxxx "I
b01000001 "J
b10000010 "I
b01101000 "J
b11010000 "I
b01000001 "J
b10000010 "I
b01000001 "D
b10011001 "n
b10011001 q
b10011001 "%
b00001101 "J
b00011010 "I
bxxxxxxxx "J
bxxxxxxxx "I
b10011001 "J
b00101001 "I
b10111111 "J
b01100101 "I
b00001101 "J
b00011010 "I
b10111111 "J
b01100101 "I
b00001101 "A
bxxxxxxxx "B
b10011001 "C
b10111111 "D
b00101101 "f
b00101101 m
b00101101 |
bxxxxxxxx "J
bxxxxxxxx "I
b00101101 "J
b01011010 "I
b11100110 "J
b11010111 "I
b10001100 "J
b00000011 "I
bxxxxxxxx "J
bxxxxxxxx "I
b10001100 "J
b00000011 "I
bxxxxxxxx "A
b00101101 "B
b11100110 "C
b10001100 "D
b00001111 "^
b00001111 i
b00001111 y
b00001111 "J
b00011110 "I
b01000010 "J
b10000100 "I
b10100001 "J
b01011001 "I
bxxxxxxxx "J
bxxxxxxxx "I
b00001111 "J
b00011110 "I
bxxxxxxxx "J
bxxxxxxxx "I
b00001111 "A
b01000010 "B
b10100001 "C
bxxxxxxxx "D
b10110000 "t
b10110000 t
b10110000 "'
b00001111 "J
b00011110 "I
b01000010 "J
b10000100 "I
b10100001 "J
b01011001 "I
b10110000 "J
b01111011 "I
b00001111 "J
b00011110 "I
b10110000 "J
b01111011 "I
b10110000 "D
b11001001110000111101111110001001 "@
b01010100 "l
b01010100 p
b01010100 "$
b01101000 "J
b11010000 "I
b10001001 "J
b00001001 "I
b01010100 "J
b10101000 "I
b01000001 "J
b10000010 "I
b01101000 "J
b11010000 "I
b01000001 "J
b10000010 "I
b01101000 "A
b10001001 "B
b01010100 "C
b01000001 "D
b01000101110111001000101011100111 "@
b10111011 "d
b10111011 l
b10111011 "!
b00001101 "J
b00011010 "I
b10111011 "J
b01101101 "I
b10011001 "J
b00101001 "I
b10111111 "J
b01100101 "I
b00001101 "J
b00011010 "I
b10111111 "J
b01100101 "I
b00001101 "A
b10111011 "B
b10011001 "C
b10111111 "D
b11101010011011110100010101010000 "@
b00010110 "\
b00010110 h
b00010110 x
b00010110 "J
b00101100 "I
b00101101 "J
b01011010 "I
b11100110 "J
b11010111 "I
b10001100 "J
b00000011 "I
b00010110 "J
b00101100 "I
b10001100 "J
b00000011 "I
b00010110 "A
b00101101 "B
b11100110 "C
b10001100 "D
b00110001111100010110001111110010 "@
b10111011 "S
b00111000 "Q
b01100010 "O
b11110110 "U
b11001001110000111101111110001001 "=
b11001001 "+
b11000011 "/
b11011111 "3
b10001001 "7
b00011011 Y
b01101100 ]
b10101101 a
b01110011 e
b01000101110111001000101011100111 ">
b01000101 ",
b11011100 "0
b10001010 "4
b11100111 "8
b10011111 Z
b01111010 ^
b11110010 b
b00010110 f
b11101010011011110100010101010000 "?
b11101010 "-
b01101111 "1
b01000101 "5
b01010000 "9
b00111100 [
b11000100 _
b00110011 c
b10101110 g
b00110001111100010110001111110010 "<
b00110001 "*
b11110001 ".
b01100011 "2
b11110010 "6
b11100111 X
b01011011 \
b00010111 `
b00001111 d
b01100010001110001011101111110110 "L
#200000
0!
0<
00
